<?xml version="1.0" encoding="UTF-8"?>
<session version="1.0">
<refactoring comment="Delete resource &apos;FivePanels&apos;" deleteContents="false" description="Delete resource &apos;FivePanels&apos;" element1="/FivePanels" flags="7" id="org.eclipse.ltk.core.refactoring.delete.resources" resources="1" stamp="1455673487853"/>
</session>